						<div id="myCarousel" class="carousel slide" data-ride="carousel">
						<!-- Indicators -->
						<ol class="carousel-indicators">
						  <li data-target="#myCarousel" data-slide-to="0" class="active"></li>
						  <li data-target="#myCarousel" data-slide-to="1"></li>
						  <li data-target="#myCarousel" data-slide-to="2"></li>
						  <li data-target="#myCarousel" data-slide-to="3"></li>
						</ol>

						<!-- Wrapper for slides -->
						<div class="carousel-inner" role="listbox">

						  <div class="item active">
							<img src="img/banner.jpg" alt="Chania" width="460" height="345">
						  </div>

						  <div class="item">
							<img src="img/banner.jpg" alt="Chania" width="460" height="345">
						  </div>
						
						  <div class="item">
							<img src="img/banner.jpg" alt="Flower" width="460" height="345">
						  </div>

						  <div class="item">
							<img src="img/banner.jpg" alt="Flower" width="460" height="345">
						  </div>
					  
						</div>
					  </div>
					  
					  <div class="container-fluid">
						<div class="col-md-4 col-xs-4">
							<div class="row">
								<div class="col-md-4 col-xs-4" align="center"><img src="img/vista.jpg" /></div>
								<div class="col-md-4 col-xs-4" align="center"><img src="img/liu.jpg" /></div>
								<div class="col-md-4 col-xs-4" align="center"><img src="img/protege.jpg" /></div>
							</div>
						</div>
						<div class="col-md-4 col-xs-4">
						
						</div>
						<div class="col-md-4 col-xs-4">
							<div class="col-md-4 col-xs-4" align="center"><i class="fa fa-users fa-2x" aria-hidden="true"></i><label style="margin-left: 10px; font-size: 20px;">Forum</label></div>
							<div class="col-md-2 col-xs-2" align="center"><i class="fa fa-facebook fa-2x" aria-hidden="true"></i></div>
							<div class="col-md-2 col-xs-2" align="center"><i class="fa fa-instagram fa-2x" aria-hidden="true"></i></div>
							<div class="col-md-2 col-xs-2" align="center"><i class="fa fa-youtube fa-2x" aria-hidden="true"></i></div>
							<div class="col-md-2 col-xs-2" align="center"><i class="fa fa-snapchat fa-2x" aria-hidden="true"></i></div>
						</div>
					</div>
					<br/><br/><br/>